{
  "expoServerPort": 19000,
  "packagerPort": 19001,
  "packagerPid": 16020,
  "expoServerNgrokUrl": "https://pw-7h4.anonymous.insearch.exp.direct",
  "packagerNgrokUrl": "https://packager.pw-7h4.anonymous.insearch.exp.direct",
  "ngrokPid": 14012,
  "devToolsPort": 19002
}
